[gd_scene load_steps=2 format=1]

[ext_resource path="res://Resources/Textures/Bullet.tex" type="Texture" id=1]

[node name="Explosion" type="Node2D"]

[node name="Particles" type="Particles2D" parent="."]

config/amount = 32
config/lifetime = 2.0
config/emit_timeout = 2.0
config/emitting = false
config/explosiveness = 0.1
config/texture = ExtResource( 1 )
params/direction = 0.0
params/spread = 360.0
params/linear_velocity = 300.0
params/spin_velocity = 0.0
params/orbit_velocity = 0.0
params/gravity_direction = 1.0
params/gravity_strength = 50.0
params/radial_accel = 0.0
params/tangential_accel = 0.0
params/damping = 200.0
params/initial_angle = 0.0
params/initial_size = 1.0
params/final_size = 0.0
params/hue_variation = 1.0
params/anim_speed_scale = 1.0
params/anim_initial_pos = 0.0
randomness/initial_size = 1.0


