[gd_scene load_steps=7 format=1]

[ext_resource path="res://Resources/Scripts/PlayerRigid.gd" type="Script" id=1]
[ext_resource path="res://Resources/Textures/RealPlayer.tex" type="Texture" id=2]
[ext_resource path="res://Resources/Textures/Speed.tex" type="Texture" id=3]

[sub_resource type="RectangleShape2D" id=1]

custom_solver_bias = 0.0
extents = Vector2( 32, 32 )

[sub_resource type="Animation" id=2]

resource/name = "Blinking"
length = 2.0
loop = false
step = 0.2
tracks/0/type = "value"
tracks/0/path = NodePath("Sprite:visibility/opacity")
tracks/0/interp = 1
tracks/0/imported = false
tracks/0/keys = { "times":FloatArray( 0, 0.2, 0.4, 0.6, 0.8, 1, 1.2, 1.4, 1.6, 1.8, 2 ), "transitions":FloatArray( 1, 1, 1, 1, 1, 1, 1, 1, 1, 1, 1 ), "update":0, "values":[ 1.0, 0.0, 1.0, 0.0, 1.0, 0.0, 1.0, 0.0, 1.0, 0.0, 1.0 ] }

[sub_resource type="Animation" id=3]

length = 2.0
loop = false
step = 0.5
tracks/0/type = "value"
tracks/0/path = NodePath("Sprite:transform/pos")
tracks/0/interp = 2
tracks/0/imported = false
tracks/0/keys = { "times":FloatArray( 0, 0.5, 2 ), "transitions":FloatArray( 1, 1, 1 ), "update":0, "values":[ Vector2( 0, 0 ), Vector2( 0, -128 ), Vector2( 0, 2048 ) ] }
tracks/1/type = "value"
tracks/1/path = NodePath("Sprite:transform/rot")
tracks/1/interp = 1
tracks/1/imported = false
tracks/1/keys = { "times":FloatArray( 0, 0.5, 1, 2 ), "transitions":FloatArray( 1, 1, 1, 1 ), "update":0, "values":[ 0.0, -180.0, -360.0, -720.0 ] }

[node name="Player" type="RigidBody2D"]

input/pickable = false
shapes/0/shape = SubResource( 1 )
shapes/0/transform = Matrix32( 1, 0, 0, 1, 0, 0 )
shapes/0/trigger = false
collision/layers = 4
collision/mask = 4
mode = 2
mass = 0.1
friction = 0.0
bounce = 0.0
gravity_scale = 8.0
custom_integrator = false
continuous_cd = 2
contacts_reported = 4
contact_monitor = true
sleeping = false
can_sleep = false
velocity/linear = Vector2( 0, 0 )
velocity/angular = 0.0
damp_override/linear = -1.0
damp_override/angular = -1.0
script/script = ExtResource( 1 )

[node name="Sprite" type="Sprite" parent="."]

z/z = 32
texture = ExtResource( 2 )
modulate = Color( 0.517647, 0.670588, 0.376471, 1 )

[node name="Shape" type="CollisionShape2D" parent="."]

visibility/visible = false
shape = SubResource( 1 )
trigger = false
_update_shape_index = 0

[node name="Anim" type="AnimationPlayer" parent="."]

playback/process_mode = 1
playback/default_blend_time = 0.0
root/root = NodePath("..")
anims/Blinking = SubResource( 2 )
anims/Death = SubResource( 3 )
playback/active = true
playback/speed = 1.0
blend_times = [  ]
autoplay = ""

[node name="Speed" type="Particles2D" parent="."]

config/amount = 10
config/lifetime = 1.0
config/emitting = false
config/local_space = false
config/texture = ExtResource( 3 )
params/direction = 0.0
params/spread = 45.0
params/linear_velocity = 40.0
params/spin_velocity = 0.0
params/orbit_velocity = 0.0
params/gravity_direction = 0.0
params/gravity_strength = 0.0
params/radial_accel = 0.0
params/tangential_accel = 0.0
params/damping = 0.0
params/initial_angle = 0.0
params/initial_size = 0.8
params/final_size = 0.0
params/hue_variation = 0.0
params/anim_speed_scale = 1.0
params/anim_initial_pos = 0.0
randomness/initial_size = 1.0


